M48
; DRILL file {KiCad 5.1.5-1.fc30} date Sat 16 May 2020 23:49:54 CEST
; FORMAT={-:-/ absolute / inch / decimal}
; #@! TF.CreationDate,2020-05-16T23:49:54+02:00
; #@! TF.GenerationSoftware,Kicad,Pcbnew,5.1.5-1.fc30
; #@! TF.FileFunction,NonPlated,1,2,NPTH
FMAT,2
INCH
T1C0.0860
T2C0.1260
%
G90
G05
T1
X2.205Y-2.855
X2.855Y-3.655
X2.275Y-1.46
X2.905Y-1.99
T2
X1.2207Y-1.4579
X1.2207Y-3.7413
X3.1498Y-3.7413
X3.1498Y-1.4579
T0
M30
