(module Adafruit_PCF8523 (layer F.Cu) (tedit 5EBF0C7B)
  (fp_text reference REF** (at 11.303 27.178) (layer F.SilkS)
    (effects (font (size 1 1) (thickness 0.15)))
  )
  (fp_text value Adafruit_PCF8523 (at 10.922 -1.397) (layer F.SilkS)
    (effects (font (size 1 1) (thickness 0.15)))
  )
  (fp_line (start 0 0) (end 21.59 0) (layer F.SilkS) (width 0.127))
  (fp_line (start 21.59 0) (end 21.59 25.4) (layer F.SilkS) (width 0.127))
  (fp_line (start 0 25.4) (end 21.59 25.4) (layer F.SilkS) (width 0.127))
  (fp_line (start 0 0) (end 0 25.4) (layer F.SilkS) (width 0.127))
  (fp_text user GND (at 3.81 20.574) (layer F.SilkS)
    (effects (font (size 1 1) (thickness 0.15)))
  )
  (fp_text user VCC (at 6.35 19.05) (layer F.SilkS)
    (effects (font (size 1 1) (thickness 0.15)))
  )
  (fp_text user SDA (at 8.89 20.574) (layer F.SilkS)
    (effects (font (size 1 1) (thickness 0.15)))
  )
  (fp_text user SQW (at 13.97 20.574) (layer F.SilkS)
    (effects (font (size 1 1) (thickness 0.15)))
  )
  (fp_text user SCL (at 11.43 19.05) (layer F.SilkS)
    (effects (font (size 1 1) (thickness 0.15)))
  )
  (pad 1 thru_hole circle (at 3.81 22.86) (size 2 2) (drill 1.02) (layers *.Cu *.Mask))
  (pad 2 thru_hole circle (at 6.35 22.86) (size 2 2) (drill 1.02) (layers *.Cu *.Mask))
  (pad 3 thru_hole circle (at 8.89 22.86) (size 2 2) (drill 1.02) (layers *.Cu *.Mask))
  (pad 4 thru_hole circle (at 11.43 22.86) (size 2 2) (drill 1.02) (layers *.Cu *.Mask))
  (pad 5 thru_hole circle (at 13.97 22.86) (size 2 2) (drill 1.02) (layers *.Cu *.Mask))
  (pad "" np_thru_hole circle (at 2.54 2.54) (size 2.1844 2.1844) (drill 2.1844) (layers *.Cu *.Mask))
  (pad "" np_thru_hole circle (at 19.05 22.86) (size 2.1844 2.1844) (drill 2.1844) (layers *.Cu *.Mask))
)
