<?xml version="1.0" encoding="UTF-8" standalone="no"?>
<!-- Created with Inkscape (http://www.inkscape.org/) -->

<svg
   xmlns:dc="http://purl.org/dc/elements/1.1/"
   xmlns:cc="http://creativecommons.org/ns#"
   xmlns:rdf="http://www.w3.org/1999/02/22-rdf-syntax-ns#"
   xmlns:svg="http://www.w3.org/2000/svg"
   xmlns="http://www.w3.org/2000/svg"
   xmlns:sodipodi="http://sodipodi.sourceforge.net/DTD/sodipodi-0.dtd"
   xmlns:inkscape="http://www.inkscape.org/namespaces/inkscape"
   version="1.1"
   id="svg2"
   xml:space="preserve"
   width="208.71902"
   height="234.33078"
   viewBox="0 0 208.71902 234.33078"
   sodipodi:docname="CMAS.svg"
   inkscape:version="0.92.1 r"><metadata
     id="metadata8"><rdf:RDF><cc:Work
         rdf:about=""><dc:format>image/svg+xml</dc:format><dc:type
           rdf:resource="http://purl.org/dc/dcmitype/StillImage" /><dc:title></dc:title></cc:Work></rdf:RDF></metadata><defs
     id="defs6" /><sodipodi:namedview
     pagecolor="#ffffff"
     bordercolor="#666666"
     borderopacity="1"
     objecttolerance="10"
     gridtolerance="10"
     guidetolerance="10"
     inkscape:pageopacity="0"
     inkscape:pageshadow="2"
     inkscape:window-width="1916"
     inkscape:window-height="1055"
     id="namedview4"
     showgrid="false"
     fit-margin-top="0"
     fit-margin-left="0"
     fit-margin-right="0"
     fit-margin-bottom="0"
     inkscape:zoom="2.593946"
     inkscape:cx="202.65753"
     inkscape:cy="121.90736"
     inkscape:window-x="0"
     inkscape:window-y="21"
     inkscape:window-maximized="0"
     inkscape:current-layer="g10" /><g
     id="g10"
     inkscape:groupmode="layer"
     inkscape:label="ink_ext_XXXXXX"
     transform="matrix(1.3333333,0,0,-1.3333333,-24.14436,245.66933)"><path
       inkscape:connector-curvature="0"
       id="path16"
       style="fill:#000000;fill-opacity:1;fill-rule:evenodd;stroke:none;stroke-width:0.1"
       d="m 89.8734,150.971 c -0.7023,0.351 -1.5699,0.261 -1.5699,1.047 0,1.57 2.8785,1.395 4.4481,1.395 0.7847,0 1.0027,-0.959 1.0027,-1.744 -1.5699,0 -2.3113,-1.483 -3.8809,-0.698" /><path
       inkscape:connector-curvature="0"
       id="path18"
       style="fill:#000000;fill-opacity:1;fill-rule:evenodd;stroke:none;stroke-width:0.1"
       d="m 96.3781,138.422 c 8.0149,0 10.2739,5.064 10.2739,14.946 0,1.482 -7.0149,2.406 -8.3875,-0.762 -0.0727,0.953 0.3761,2.532 0.8972,2.746 3.4853,1.425 4.9583,-0.351 5.8113,1.186 0.933,1.678 -3.955,5.973 -5.5242,9.113 0,0.785 0.5364,2.639 2.1062,3.424 1.569,0.785 2.647,0.213 4.506,-1.021 2.63,-1.743 9.061,-10.137 11.702,-18.666 2.129,-6.882 -0.622,-16.859 -4.463,-23.2 12.079,-9.724 30.298,-3.138 37.091,8.926 -1.842,4.707 -5.391,7.743 -8.666,10.608 -5.575,4.878 -10.487,7.389 -13.882,9.217 -2.66,1.433 -8.241,3.05 -10.697,3.869 5.494,5.494 14.345,7.392 21.408,5.822 0.786,8.754 6.278,15.698 14.127,19.622 -1.017,-0.509 -1.027,-8.007 -1.102,-9.223 -0.565,-9.125 0.231,-20.479 3.06,-29.223 0.77,-2.38 0.123,-1.855 1.252,-3.988 0.848,-1.6 3.966,-1.991 4.72,-2.744 1.969,-1.97 4.753,-6.81 2.963,-10.317 10.865,-20.853 15.538,-49.6949 5.649,-69.0507 C 159.103,39.8961 136.769,28.4828 117.148,22.9891 108.514,19.85 101.767,14.4539 96.3781,8.50391 v 0 0 C 90.9898,14.4543 84.2418,19.3844 75.6082,22.5238 55.9871,28.018 33.6527,39.4313 23.5328,59.2406 c -9.8887,19.3563 -5.2164,48.1984 5.6488,69.0514 -1.7898,3.506 0.9942,8.347 2.9637,10.317 0.7527,0.753 3.8719,1.144 4.7195,2.744 1.1293,2.133 0.4821,1.608 1.252,3.988 2.8293,8.744 3.625,20.097 3.0609,29.223 -0.075,1.215 -0.0851,8.714 -1.1031,9.222 7.8488,-3.923 13.3414,-10.868 14.1274,-19.621 7.0636,1.57 15.9136,-0.329 21.4074,-5.822 -2.4555,-0.819 -8.0364,-2.437 -10.6965,-3.869 -3.3953,-1.828 -8.3074,-4.339 -13.8828,-9.217 -3.2742,-2.865 -6.8231,-5.901 -8.6653,-10.609 6.7926,-12.063 25.0122,-18.649 37.0915,-8.925 -3.8415,6.341 -6.593,16.318 -4.4625,23.2 2.6398,8.529 9.0714,16.922 11.7011,18.666 1.8598,1.233 2.9367,1.806 4.5063,1.02 1.5699,-0.785 2.1058,-2.639 2.1058,-3.423 -1.5699,-3.14 -6.457,-7.436 -5.525,-9.114 1.0621,-1.911 4.2118,0.429 5.7813,-1.926 0.6101,0 -7.4594,0.239 -7.4594,-1.244 0,-9.882 2.2586,-14.48 10.2742,-14.48" /><path
       inkscape:connector-curvature="0"
       id="path20"
       style="fill:#ffffff;fill-opacity:1;fill-rule:evenodd;stroke:none;stroke-width:0.1"
       d="m 131.004,70.7352 c -10.383,-2.9164 -25.887,3.0574 -21.929,16.2531 1.977,6.5887 8.384,10.4793 13.938,13.7067 7.928,4.607 15.505,9.491 21.49,16.873 3.789,4.674 7.458,12.306 11.188,6.339 1.54,-2.466 1.446,-6.18 1.617,-8.977 0.931,-15.2624 -3.421,-27.6495 -13.155,-35.9226 -3.757,-3.1929 -9.121,-7.141 -13.149,-8.2722" /><path
       inkscape:connector-curvature="0"
       id="path22"
       style="fill:#000000;fill-opacity:1;fill-rule:evenodd;stroke:none;stroke-width:0.1"
       d="m 102.882,151.436 c 0.702,0.351 1.571,0.262 1.571,1.047 0,1.569 -2.879,1.396 -4.449,1.396 -0.7845,0 -1.0024,-0.96 -1.0024,-1.745 1.5694,0 2.3114,-1.483 3.8804,-0.698" /><path
       inkscape:connector-curvature="0"
       id="path24"
       style="fill:#ffffff;fill-opacity:1;fill-rule:evenodd;stroke:none;stroke-width:0.1"
       d="m 151.91,149.275 c 0,0.016 0,0.032 -0.001,0.048 -0.047,2.565 -1.525,4.931 -1.757,7.459 -0.244,2.655 -0.405,4.478 -0.606,6.996 -0.18,2.26 -0.526,4.351 -0.271,6.601 0.034,0.303 0.317,5.958 -0.362,5.516 -1.72,-1.119 -2.215,-3.777 -2.067,-6.163 0.104,-1.688 0.035,-4.98 0.341,-6.941 0.399,-2.551 1.321,-5.799 1.935,-8.307 0.38,-1.549 1.024,-3.319 1.584,-4.82 0.31,-0.829 1.224,-2.165 1.204,-0.389" /><path
       inkscape:connector-curvature="0"
       id="path26"
       style="fill:#ffffff;fill-opacity:1;fill-rule:evenodd;stroke:none;stroke-width:0.1"
       d="m 132.85,157.215 c -0.771,0.458 -5.918,2.162 -8.421,1.479 -0.961,-0.262 2.456,-1.672 3.3,-2.048 2.55,-1.134 4.376,-2.255 6.826,-3.477 2.743,-1.367 4.456,-2.214 6.943,-4.033 0.961,-0.703 3.531,-3.623 4.552,-2.276 0.228,0.797 -1.737,4.126 -4.21,5.462 -3.625,1.959 -5.474,2.801 -8.99,4.893" /><path
       inkscape:connector-curvature="0"
       id="path28"
       style="fill:#ffffff;fill-opacity:1;fill-rule:evenodd;stroke:none;stroke-width:0.1"
       d="m 149.779,145.971 c 0.055,-0.012 0.112,-0.023 0.169,-0.03 0.732,1.552 -0.672,3.158 -1.281,4.447 -0.508,1.075 -3.239,7.246 -3.414,6.372 -0.455,-2.276 -0.594,-3.801 -0.228,-4.552 0.808,-1.646 2.639,-5.771 4.754,-6.237" /><path
       inkscape:connector-curvature="0"
       id="path30"
       style="fill:#ffffff;fill-opacity:1;fill-rule:evenodd;stroke:none;stroke-width:0.1"
       d="m 61.7523,70.2699 c 10.3829,-2.916 25.8868,3.0574 21.9278,16.2535 -1.9766,6.5883 -8.3836,10.4786 -13.9375,13.7066 -7.927,4.607 -15.5051,9.49 -21.4895,16.873 -3.7894,4.674 -7.4582,12.306 -11.1879,6.338 -1.5402,-2.465 -1.4464,-6.179 -1.6172,-8.976 -0.9312,-15.2627 3.4215,-27.6498 13.1551,-35.9228 3.7567,-3.193 9.1215,-7.141 13.1492,-8.2723" /><path
       inkscape:connector-curvature="0"
       id="path32"
       style="fill:#ffffff;fill-opacity:1;fill-rule:evenodd;stroke:none;stroke-width:0.1"
       d="m 98.5934,35.5793 c 1.1847,0 1.9456,1.8406 2.2196,2.7539 0.439,1.4586 -0.193,2.8137 -0.602,4.193 -0.6282,2.1211 -1.4571,8.5734 -0.7196,9.8457 0.7866,-0.7406 0.7016,-3.5446 0.9536,-4.5289 0.27,-1.0528 0.842,-3.1555 2.06,-3.3735 1.474,-0.2636 2.409,1.92 2.232,3.1953 -0.235,1.6747 -1.174,3.2743 -1.517,4.9555 0.562,-1.2613 1.696,-2.4578 3.437,-3.4629 1.501,-0.866 1.257,1.8332 0.947,2.8977 0.762,-0.6977 1.526,-1.3942 2.317,-2.0586 1.511,-1.2711 3.12,-2.4192 4.798,-3.4594 1.162,-0.7203 2.525,-1.2656 3.926,-1.398 0.951,-0.0907 2.799,-0.4133 2.746,0.6699 -0.06,1.2539 -4.843,3.0414 -5.76,3.6832 -6.027,4.2195 -8.639,7.2336 -8.84,9.9125 -0.091,1.2117 1.691,-1.5793 2.164,-1.907 3.161,-2.1922 5.873,-4.8575 9.624,-6.5321 0.744,-0.3328 3.066,-0.3109 3.56,0.7094 0.445,0.918 -0.895,1.7793 -1.552,2.1707 -1.2,0.7152 -2.657,1.0199 -3.974,1.4125 -1.612,0.4805 -4.826,2.2688 -5.937,3.6102 -1.088,1.3132 2.294,-0.3825 2.887,-0.5621 1.017,-0.3075 3.474,-1.6133 4.546,-1.0454 2.424,1.2852 -4.955,3.3489 -6.898,4.9563 -0.996,0.8238 4.409,-0.7012 5.224,-0.9379 1.592,-0.4617 3.014,-0.4684 4.972,-0.3117 1.609,0.1289 -0.739,1.7199 -1.54,1.9191 -1.408,0.3512 -2.862,0.2746 -4.291,0.4754 -0.817,0.1156 -2.623,0.7969 -4.566,1.7352 -0.871,0.4203 2.615,0.0101 3.148,-0.1344 1.197,-0.3234 4.021,-0.4899 5.291,-0.0668 0.186,0.0617 -0.317,1.8469 -0.401,1.875 -5.827,1.9426 -8.36,3.0344 -11.65,7.8055 -4.108,5.957 -3.607,16.7496 1.491,21.1754 7.631,6.625 15.885,9.666 26.477,17.341 8.218,5.953 11.107,11.59 13.798,14.73 0.785,0 2.691,1.99 4.289,1.118 0,1.57 -1.453,3.131 -2.238,3.916 -19.91,-23.307 -32.86,-11.453 -39.343,-8.204 -9.115,-15.361 -9.993,-36.98 -9.526,-53.6143 0.043,-1.5688 -2.355,-0.7844 -3.1401,0.7851 -0.3856,20.3856 -0.7184,38.5942 4.7751,57.4302 0,2.355 -1.017,8.839 -4.1568,8.055 l -7.0031,-0.149 c -3.1395,0.785 -4.0465,-6.016 -4.0465,-8.371 5.4938,-18.836 5.1606,-37.0449 4.7754,-57.4304 -0.7852,-1.5699 -3.1836,-2.3543 -3.1395,-0.7852 0.4668,16.6344 -0.4113,38.2536 -9.5273,53.6146 -6.482,-3.25 -19.4332,-15.103 -39.3426,8.204 -0.7847,-0.785 -2.2375,-2.346 -2.2375,-3.916 1.5981,0.872 3.5035,-1.118 4.2887,-1.118 2.691,-3.14 5.5809,-8.777 13.798,-14.73 10.5926,-7.676 18.8457,-10.716 26.477,-17.3413 5.0984,-4.4262 5.5984,-15.2187 1.4906,-21.1754 -3.2894,-4.7711 -5.8222,-5.8629 -11.6488,-7.8054 -0.0848,-0.0282 -0.5879,-1.8133 -0.4016,-1.8754 1.2696,-0.4227 4.0934,-0.2563 5.291,0.0672 0.5333,0.1441 4.0188,0.5546 3.1477,0.1339 -1.9426,-0.9378 -3.7484,-1.6191 -4.5664,-1.7343 -1.4281,-0.2012 -2.8816,-0.1246 -4.2902,-0.4758 -0.8,-0.1992 -3.1493,-1.7902 -1.5403,-1.9192 1.9582,-0.157 3.3805,-0.15 4.9719,0.3118 0.8145,0.2367 6.2199,1.7617 5.2238,0.9379 -1.9422,-1.6075 -9.3218,-3.6715 -6.8976,-4.9563 1.0722,-0.568 3.5293,0.7379 4.5457,1.0453 0.5937,0.1801 3.9758,1.8754 2.8879,0.5625 -1.1114,-1.3418 -4.3254,-3.1301 -5.9367,-3.6105 -1.3176,-0.3926 -2.7747,-0.6973 -3.9754,-1.4125 -0.6563,-0.391 -1.9961,-1.2532 -1.5516,-2.1703 0.4945,-1.0207 2.8156,-1.0422 3.5609,-0.7094 3.7504,1.6738 6.4621,4.3394 9.6231,6.5316 0.473,0.3278 2.2547,3.1188 2.164,1.9071 -0.2007,-2.679 -2.8128,-5.693 -8.8402,-9.9122 -0.9168,-0.6418 -5.6992,-2.4293 -5.7598,-3.6835 -0.0523,-1.0833 1.795,-0.7602 2.7457,-0.67 1.4012,0.1325 2.7641,0.6778 3.9266,1.3985 1.6774,1.0402 3.2871,2.1875 4.7981,3.4586 0.791,0.6652 1.5546,1.3613 2.3171,2.0593 -0.3101,-1.0652 -0.5543,-3.764 0.9465,-2.898 1.741,1.0047 2.8758,2.2012 3.4371,3.4633 -0.3425,-1.6817 -1.2828,-3.2813 -1.5164,-4.9563 -0.1785,-1.275 0.7582,-3.4582 2.2317,-3.1949 1.2176,0.2176 1.7898,2.3203 2.0597,3.3738 0.2524,0.984 0.1676,3.7879 0.9539,4.5289 0.7368,-1.2722 -0.0921,-7.725 -0.7199,-9.8461 -0.4086,-1.3793 -1.0406,-2.7343 -0.6019,-4.1933 0.275,-0.9133 1.0343,-2.7535 2.2195,-2.7535 l 4.4309,0.4652" /><path
       inkscape:connector-curvature="0"
       id="path34"
       style="fill:#000000;fill-opacity:1;fill-rule:evenodd;stroke:none;stroke-width:0.1"
       d="m 115.561,108.646 c -0.603,2.408 -2.098,5.219 -4.452,6.789 1.307,-3.632 2.818,-7.32 2.034,-10.459 -1.57,-3.139 -4.85,-4.648 -7.99,-4.648 4.71,-0.785 12.057,1.743 10.408,8.318" /><path
       inkscape:connector-curvature="0"
       id="path36"
       style="fill:#000000;fill-opacity:1;fill-rule:evenodd;stroke:none;stroke-width:0.1"
       d="m 77.1945,108.181 c 0.6035,2.408 2.0981,5.219 4.4528,6.789 -1.3071,-3.632 -2.8188,-7.32 -2.0336,-10.459 1.5695,-3.14 4.85,-4.6485 7.9894,-4.6485 -4.7093,-0.7844 -12.0566,1.7425 -10.4086,8.3185" /><path
       inkscape:connector-curvature="0"
       id="path38"
       style="fill:#000000;fill-opacity:1;fill-rule:evenodd;stroke:none;stroke-width:0.1"
       d="m 97.4348,146.562 c 0,-0.785 -1.3426,-0.873 -2.1274,-0.873 0.4281,0 0.7668,-1.025 1.5606,-1.09 0.6593,-0.053 1.6953,0.869 2.03,1.249 l -1.4632,0.714" /><path
       inkscape:connector-curvature="0"
       id="path40"
       style="fill:#000000;fill-opacity:1;fill-rule:evenodd;stroke:none;stroke-width:0.1"
       d="m 97.6523,141.934 c 0.4899,0.276 1.7547,-0.184 1.6571,0.86 -0.0949,1.019 -5.2602,0.947 -4.8403,-0.491 0.2032,-0.698 1.6321,-0.046 2.2247,-0.451 l 0.9585,0.082" /><path
       inkscape:connector-curvature="0"
       id="path42"
       style="fill:#000000;fill-opacity:1;fill-rule:evenodd;stroke:none;stroke-width:0.1"
       d="m 97.1371,141.12 c -0.3418,-0.069 -1.0242,-0.252 -1.2281,-0.556 -0.2633,-0.392 0.7848,-0.568 1.4383,-0.568 0.3488,0.044 1.4672,0.147 1.0468,0.611 -0.3859,0.427 -0.6796,0.628 -1.257,0.513" /><path
       inkscape:connector-curvature="0"
       id="path44"
       style="fill:#ffffff;fill-opacity:1;fill-rule:evenodd;stroke:none;stroke-width:0.1"
       d="m 35.6785,133.921 c -0.6668,1.194 -2.3004,2.294 -3.1773,1.555 -1.8684,-1.574 2.2851,-2.956 3.3707,-2.997 0.1984,0.409 0.0902,0.934 -0.1934,1.442" /><path
       inkscape:connector-curvature="0"
       id="path46"
       style="fill:#ffffff;fill-opacity:1;fill-rule:evenodd;stroke:none;stroke-width:0.1"
       d="m 34.6914,130.948 c 0.1973,2.924 -5.6492,1.029 -2.7281,-0.959 0.689,-0.469 2.6613,-0.02 2.7281,0.959" /><path
       inkscape:connector-curvature="0"
       id="path48"
       style="fill:#ffffff;fill-opacity:1;fill-rule:evenodd;stroke:none;stroke-width:0.1"
       d="m 36.1734,135.504 c 1.5489,1.022 -0.0496,4.78 -1.4972,3.784 -1.168,-0.804 0.598,-4.378 1.4972,-3.784" /><path
       inkscape:connector-curvature="0"
       id="path50"
       style="fill:#ffffff;fill-opacity:1;fill-rule:evenodd;stroke:none;stroke-width:0.1"
       d="m 40.8457,148.81 c 0,0.016 4e-4,0.031 0.0012,0.048 0.0472,2.564 1.525,4.931 1.7574,7.458 0.2441,2.656 0.4051,4.479 0.6059,6.997 0.1804,2.26 0.5257,4.351 0.2714,6.601 -0.0339,0.302 -0.3175,5.958 0.3618,5.516 1.7199,-1.119 2.214,-3.778 2.0664,-6.163 -0.1043,-1.688 -0.0352,-4.981 -0.3414,-6.941 -0.3985,-2.551 -1.32,-5.799 -1.9344,-8.307 -0.3797,-1.549 -1.0246,-3.319 -1.5844,-4.82 -0.309,-0.829 -1.2242,-2.165 -1.2039,-0.389" /><path
       inkscape:connector-curvature="0"
       id="path52"
       style="fill:#ffffff;fill-opacity:1;fill-rule:evenodd;stroke:none;stroke-width:0.1"
       d="m 59.9059,156.75 c 0.7711,0.458 5.9171,2.162 8.4207,1.479 0.9613,-0.262 -2.4555,-1.672 -3.2996,-2.048 -2.5493,-1.135 -4.3754,-2.256 -6.827,-3.477 -2.7426,-1.367 -4.4547,-2.215 -6.9422,-4.033 -0.9609,-0.703 -3.5305,-3.623 -4.5515,-2.276 -0.2278,0.796 1.7375,4.126 4.2101,5.462 3.625,1.959 5.4734,2.801 8.9895,4.893" /><path
       inkscape:connector-curvature="0"
       id="path54"
       style="fill:#ffffff;fill-opacity:1;fill-rule:evenodd;stroke:none;stroke-width:0.1"
       d="m 42.9773,145.505 c -0.0554,-0.011 -0.1121,-0.022 -0.1691,-0.029 -0.7324,1.552 0.6715,3.158 1.2809,4.446 0.5082,1.076 3.2394,7.246 3.414,6.373 0.4547,-2.276 0.5946,-3.802 0.2274,-4.552 -0.8078,-1.646 -2.6391,-5.772 -4.7532,-6.238" /></g></svg>